<?xml version='1.0' encoding='utf-8'?>
<gexf version="1.2" xmlns="http://www.gexf.net/1.2draft" xmlns:xsi="http://www.w3.org/2001/XMLSchema-instance" xsi:schemaLocation="http://www.w3.org/2001/XMLSchema-instance">
  <graph defaultedgetype="undirected" mode="static" name="">
    <meta>
      <creator>NetworkX 2.1</creator>
      <lastmodified>24/08/2018</lastmodified>
    </meta>
    <nodes>
      <node id="2199023255572" label="2199023255572" />
      <node id="4398046511113" label="4398046511113" />
      <node id="4398046511146" label="4398046511146" />
      <node id="6597069766696" label="6597069766696" />
      <node id="4398046511105" label="4398046511105" />
      <node id="4398046511136" label="4398046511136" />
      <node id="6597069766687" label="6597069766687" />
      <node id="8796093022242" label="8796093022242" />
      <node id="6597069766670" label="6597069766670" />
      <node id="6597069766700" label="6597069766700" />
      <node id="2199023255589" label="2199023255589" />
      <node id="4398046511133" label="4398046511133" />
      <node id="2199023255555" label="2199023255555" />
      <node id="6597069766660" label="6597069766660" />
      <node id="2199023255557" label="2199023255557" />
      <node id="4398046511147" label="4398046511147" />
      <node id="2199023255574" label="2199023255574" />
      <node id="4398046511122" label="4398046511122" />
      <node id="8796093022232" label="8796093022232" />
      <node id="6597069766663" label="6597069766663" />
      <node id="6597069766668" label="6597069766668" />
      <node id="6597069766686" label="6597069766686" />
      <node id="4398046511120" label="4398046511120" />
      <node id="4398046511140" label="4398046511140" />
      <node id="6597069766683" label="6597069766683" />
      <node id="4398046511149" label="4398046511149" />
      <node id="13" label="13" />
      <node id="2199023255571" label="2199023255571" />
      <node id="4398046511104" label="4398046511104" />
      <node id="41" label="41" />
      <node id="4398046511151" label="4398046511151" />
      <node id="8796093022257" label="8796093022257" />
      <node id="4398046511106" label="4398046511106" />
      <node id="2199023255580" label="2199023255580" />
      <node id="4398046511112" label="4398046511112" />
    </nodes>
    <edges>
      <edge id="0" source="2199023255572" target="4398046511113" />
      <edge id="1" source="2199023255572" target="4398046511146" />
      <edge id="2" source="2199023255572" target="6597069766696" />
      <edge id="3" source="4398046511113" target="2199023255589" />
      <edge id="4" source="4398046511113" target="2199023255557" />
      <edge id="5" source="4398046511113" target="4398046511133" />
      <edge id="6" source="4398046511113" target="4398046511146" />
      <edge id="7" source="4398046511113" target="4398046511147" />
      <edge id="8" source="4398046511113" target="6597069766660" />
      <edge id="9" source="4398046511113" target="6597069766663" />
      <edge id="10" source="4398046511113" target="6597069766668" />
      <edge id="11" source="4398046511113" target="6597069766670" />
      <edge id="12" source="4398046511113" target="6597069766686" />
      <edge id="13" source="4398046511113" target="4398046511104" />
      <edge id="14" source="4398046511113" target="41" />
      <edge id="15" source="4398046511113" target="4398046511106" />
      <edge id="16" source="4398046511146" target="4398046511105" />
      <edge id="17" source="4398046511146" target="2199023255574" />
      <edge id="18" source="4398046511146" target="4398046511120" />
      <edge id="19" source="4398046511146" target="4398046511140" />
      <edge id="20" source="4398046511146" target="6597069766660" />
      <edge id="21" source="4398046511146" target="6597069766683" />
      <edge id="22" source="4398046511146" target="6597069766686" />
      <edge id="23" source="4398046511146" target="6597069766696" />
      <edge id="24" source="4398046511146" target="6597069766700" />
      <edge id="25" source="4398046511146" target="8796093022232" />
      <edge id="26" source="4398046511146" target="8796093022242" />
      <edge id="27" source="4398046511146" target="13" />
      <edge id="28" source="4398046511146" target="4398046511122" />
      <edge id="29" source="4398046511146" target="2199023255580" />
      <edge id="30" source="6597069766696" target="4398046511105" />
      <edge id="31" source="6597069766696" target="2199023255574" />
      <edge id="32" source="6597069766696" target="4398046511120" />
      <edge id="33" source="6597069766696" target="8796093022232" />
      <edge id="34" source="6597069766696" target="8796093022242" />
      <edge id="35" source="6597069766696" target="4398046511122" />
      <edge id="36" source="6597069766696" target="2199023255571" />
      <edge id="37" source="6597069766696" target="4398046511136" />
      <edge id="38" source="6597069766696" target="6597069766660" />
      <edge id="39" source="6597069766696" target="2199023255580" />
      <edge id="40" source="4398046511105" target="4398046511136" />
      <edge id="41" source="4398046511105" target="6597069766687" />
      <edge id="42" source="4398046511105" target="8796093022242" />
      <edge id="43" source="4398046511136" target="4398046511149" />
      <edge id="44" source="6597069766687" target="8796093022242" />
      <edge id="45" source="6597069766687" target="4398046511120" />
      <edge id="46" source="6597069766687" target="6597069766660" />
      <edge id="47" source="8796093022242" target="4398046511149" />
      <edge id="48" source="8796093022242" target="6597069766660" />
      <edge id="49" source="6597069766670" target="6597069766700" />
      <edge id="50" source="6597069766670" target="2199023255574" />
      <edge id="51" source="6597069766700" target="6597069766660" />
      <edge id="52" source="6597069766700" target="2199023255580" />
      <edge id="53" source="2199023255589" target="4398046511133" />
      <edge id="54" source="4398046511133" target="2199023255557" />
      <edge id="55" source="4398046511133" target="8796093022232" />
      <edge id="56" source="2199023255555" target="6597069766660" />
      <edge id="57" source="6597069766660" target="41" />
      <edge id="58" source="6597069766660" target="4398046511151" />
      <edge id="59" source="6597069766660" target="6597069766683" />
      <edge id="60" source="6597069766660" target="8796093022232" />
      <edge id="61" source="6597069766660" target="8796093022257" />
      <edge id="62" source="6597069766660" target="2199023255580" />
      <edge id="63" source="2199023255557" target="4398046511147" />
      <edge id="64" source="4398046511147" target="4398046511140" />
      <edge id="65" source="4398046511147" target="41" />
      <edge id="66" source="2199023255574" target="4398046511122" />
      <edge id="67" source="2199023255574" target="8796093022232" />
      <edge id="68" source="2199023255574" target="41" />
      <edge id="69" source="8796093022232" target="4398046511149" />
      <edge id="70" source="8796093022232" target="41" />
      <edge id="71" source="4398046511120" target="2199023255580" />
      <edge id="72" source="4398046511104" target="41" />
      <edge id="73" source="2199023255580" target="4398046511112" />
    </edges>
  </graph>
</gexf>
